{
  "$schema": "https://developer.microsoft.com/json-schemas/spfx-build/package-solution.schema.json",
  "solution": {
    "name": "hr-inside-v-2-client-side-solution",
    "id": "6aec0de3-1b2e-4707-9b55-21a2e32fa78a",
    "version": "1.0.0.0",
    "includeClientSideAssets": true
  },
  "paths": {
    "zippedPackage": "solution/hr-inside-v-2.sppkg"
  }
}
